Yahoo Finance Examples
…
tidyverse uses tibble structures (see notes)

tidyverse has a time series tibble structure:

https://tsibble.tidyverts.org/

https://cran.r-project.org/web/packages/tsibble/index.html

Reading in csv (comma separated data) in R using readr package

AAPL_Daily <- readr::read_csv("AAPL.csv",show_col_types = FALSE)

print(AAPL_Daily)

## # A tibble: 250 × 7
##    Date        Open  High   Low Close `Adj Close`    Volume
##    <date>     <dbl> <dbl> <dbl> <dbl>       <dbl>     <dbl>
##  1 2022-01-10  169.  172.  168.  172.        171. 106765600
##  2 2022-01-11  172.  175.  171.  175.        174.  76138300
##  3 2022-01-12  176.  177.  175.  176.        175.  74805200
##  4 2022-01-13  176.  177.  172.  172.        171.  84505800
##  5 2022-01-14  171.  174.  171.  173.        172.  80440800
##  6 2022-01-18  172.  173.  169.  170.        169.  90956700
##  7 2022-01-19  170   171.  166.  166.        165.  94815000
##  8 2022-01-20  167.  170.  164.  165.        164.  91420500
##  9 2022-01-21  164.  166.  162.  162.        161. 122848900
## 10 2022-01-24  160.  162.  155.  162.        161. 162294600
## # … with 240 more rows
…
